4413	0.0
4514	0.0
4616	0.0
4718	0.0
4820	0.0
4922	0.0
5026	0.0
5129	0.0
5241	0.0
5345	0.0
5448	0.0
5550	0.0
5655	0.0
5757	0.0
5861	0.0
5963	0.0
6068	0.0
6171	0.0
6272	0.0
16433	0.0
16536	0.0
16641	0.0
16745	0.0
16850	0.0
16954	0.0
17057	0.0
17161	0.0
17263	0.0
17368	0.0
17470	1.0
17572	1.0
17675	1.0
17776	1.0
17878	1.0
17980	1.0
18081	1.0
18187	1.0
18289	1.0
18391	1.0
18493	1.0
18596	1.0
18698	1.0
18799	1.0
18901	1.0
19003	1.0
19104	1.0
19206	1.0
19308	1.0
19410	1.0
19512	0.8099506174843799
19614	0.8099506174843799
19716	0.8099506174843799
19821	0.8099506174843799
19924	0.8099506174843799
20027	0.8099506174843799
20130	0.8099506174843799
20242	0.8099506174843799
20345	0.8099506174843799
20448	0.39208322165439313
20550	0.39208322165439313
20652	0.39208322165439313
20759	0.39208322165439313
20865	0.39208322165439313
20968	0.39208322165439313
21070	0.39208322165439313
21172	0.39208322165439313
21279	0.39208322165439313
21384	0.39208322165439313
21486	0.0
21587	0.0
21692	0.0
21796	0.0
21900	0.0
22004	0.0
22106	0.0
22208	0.0
22311	0.0
22412	0.0
22515	0.0
22622	0.0
22725	0.0
22830	0.0
22939	0.0
23043	0.0
23147	0.0
23250	0.0
23352	0.0
23454	0.0
23555	0.0
23657	0.0
23759	0.0
23860	0.0
23962	0.0
24068	0.0
24170	0.0
24273	0.0
24400	0.0
24502	0.0
24607	0.0
24709	0.0
24814	0.0
24915	0.0
25017	0.0
25119	0.0
25221	0.0
25323	0.0
25427	1.0
25529	1.0
25631	1.0
25747	1.0
25849	1.0
25952	1.0
26059	1.0
26161	1.0
26269	1.0
26370	1.0
26474	1.0
26576	1.0
26678	1.0
26779	1.0
26881	1.0
26987	1.0
27088	1.0
27191	1.0
27296	1.0
27400	1.0
27501	1.0
27607	1.0
27712	1.0
27818	1.0
27919	1.0
28021	1.0
28126	1.0
28228	1.0
28331	1.0
28432	1.0
28538	1.0
28640	1.0
28745	1.0
28852	1.0
28957	1.0
29061	1.0
29165	1.0
29271	1.0
29376	1.0
29478	1.0
29580	1.0
29683	1.0
29785	1.0
29890	1.0
29992	1.0
30099	1.0
30201	1.0
30304	1.0
30406	0.0
30509	0.0
30611	0.0
30715	0.0
30829	0.0
30932	0.0
31035	0.0
31138	0.0
31239	0.0
31341	0.0
31445	0.0
31547	0.0
31649	0.0
31751	0.0
31861	0.0
31968	0.0
32070	0.0
32175	0.0
32280	0.0
32386	0.0
32488	0.0
32594	0.0
32696	0.0
32801	0.0
32904	0.0
33008	0.0
33109	0.0
33214	0.0
33316	0.0
33417	0.0
33519	0.0
33632	0.0
33737	0.0
33839	0.0
33942	0.0
34044	0.0
34147	0.0
34248	0.0
34350	0.0
34451	0.0
34556	0.0
34657	0.0
34761	0.0
34875	0.0
34979	0.0
35084	0.0
35188	0.0
35291	0.0
35393	0.0
35496	0.0
35598	0.0
35700	0.0
35807	0.0
35922	0.0
36027	0.0
36130	0.0
36232	0.0
36339	0.0
36440	0.0
36542	0.0
36651	0.0
36753	0.0
36854	0.0
36956	0.0
37058	0.0
37159	0.0
37261	0.0
37366	0.0
37469	0.0
37573	0.0
37709	0.0
37810	0.0
37912	0.0
38015	0.0
38118	0.0
38219	0.0
38321	0.0
38429	0.0
38530	0.0
38631	0.0
38737	0.0
38839	0.0
38940	0.0
39042	0.0
39146	0.0
39248	0.0
39350	0.0
39452	0.0
39559	0.0
39662	0.0
39773	0.0
39875	0.0
39981	0.0
40083	0.0
40188	0.0
40290	0.0
40392	0.0
40494	0.0
40596	0.0
40698	0.0
40800	0.0
40901	0.0
41017	0.0
41120	0.0
41225	0.0
41330	0.0
41432	0.0
41535	0.0
41640	0.0
41741	0.0
41847	0.0
41948	0.0
42052	0.0
42157	0.0
42259	0.0
42361	0.0
42467	0.0
42570	0.0
42672	0.0
42777	0.0
42890	0.0
42992	0.0
43095	0.0
43197	0.0
43299	0.0
43404	0.0
43518	0.0
43620	0.0
43724	0.0
43828	0.0
43933	0.0
44035	0.0
44139	0.0
44242	0.0
44355	0.0
44457	1.0
44559	1.0
44660	1.0
44762	1.0
44867	1.0
44969	1.0
45075	1.0
45177	1.0
45280	1.0
45381	1.0
45487	1.0
45588	1.0
45690	1.0
45793	1.0
45895	1.0
45997	1.0
46110	1.0
46215	1.0
46320	1.0
46422	1.0
46525	1.0
46630	1.0
46752	1.0
46856	1.0
46958	1.0
47060	1.0
47162	1.0
47269	1.0
47372	0.0
47486	0.0
47590	0.0
47692	0.0
47796	0.0
47900	0.0
48005	0.0
48107	0.0
48211	0.0
48316	0.0
48418	1.0
48520	1.0
48622	1.0
48724	1.0
48826	1.0
48928	1.0
49030	1.0
49131	1.0
49237	1.0
49339	1.0
49441	1.0
49542	1.0
49644	1.0
49745	1.0
49852	1.0
49954	1.0
50056	1.0
50160	1.0
50266	1.0
50369	0.17167611096841529
50473	0.17167611096841529
50580	0.17167611096841529
50685	0.17167611096841529
50791	0.17167611096841529
50894	0.17167611096841529
50999	0.17167611096841529
51110	0.17167611096841529
51215	0.17167611096841529
51317	0.17167611096841529
51420	0.0
51521	0.0
51624	0.0
51727	0.0
51829	0.0
51931	0.0
52038	0.0
52139	0.0
52242	0.0
52348	0.0
52451	0.0
52556	0.0
52660	0.0
52765	0.0
52867	0.0
52973	0.0
53075	0.0
53179	0.0
53282	0.0
53386	0.0
53489	0.0
53590	0.0
53693	0.0
53794	0.0
53896	0.0
54001	0.0
54102	0.0
54204	0.0
54325	0.0
54426	0.0
54528	0.0
54630	0.0
54737	0.0
54839	0.0
54945	0.0
55047	0.0
55149	0.0
55251	0.0
55358	0.0
55460	0.0
55562	0.0
55666	0.0
55769	0.0
55871	0.0
55973	0.0
56079	0.0
56183	0.0
56287	0.0
56391	0.0
56492	0.6072635731799649
56597	0.6072635731799649
56699	0.6072635731799649
56803	0.6072635731799649
56905	0.6072635731799649
57008	0.6072635731799649
57111	0.6072635731799649
57212	0.6072635731799649
57316	0.6072635731799649
57418	0.0
57519	0.0
57622	0.0
57728	0.0
57830	0.0
57932	0.0
58040	0.0
58142	0.0
58248	0.0
58353	0.0
58458	0.0
58560	0.0
58664	0.0
58769	0.0
58870	0.0
58972	0.0
59078	0.0
59180	0.0
59281	0.0
59386	0.0
59488	0.0
59591	0.0
59696	0.0
59798	0.0
59900	0.0
60002	0.0
60109	0.0
60210	0.0
60318	0.0
60421	0.892258933119513
60522	0.892258933119513
60625	0.892258933119513
60728	0.892258933119513
60830	0.892258933119513
60932	0.892258933119513
61035	0.892258933119513
61136	0.892258933119513
61238	0.892258933119513
61342	1.0
61450	1.0
61551	1.0
61657	1.0
61763	1.0
61866	1.0
61968	1.0
62072	1.0
62176	1.0
62279	1.0
62384	1.0
62486	1.0
62590	1.0
62692	1.0
62796	1.0
62898	1.0
63002	1.0
63105	1.0
63207	1.0
63310	1.0
63412	0.0
63518	0.0
63620	0.0
63722	0.0
63827	0.0
63931	0.0
64036	0.0
64137	0.0
64240	0.0
64350	0.0
64453	1.0
64555	1.0
64658	1.0
64761	1.0
64863	1.0
64965	1.0
65068	1.0
65169	1.0
65276	1.0
65379	0.0
65480	0.0
65583	0.0
65693	0.0
65796	0.0
65903	0.0
66009	0.0
66110	0.0
66214	0.0
66315	0.0
66417	0.0
66519	0.0
66621	0.0
66722	0.0
66829	0.0
66932	0.0
67037	0.0
67139	0.0
67241	0.0
67350	0.0
67454	0.0
67556	0.0
67659	0.0
67761	0.0
67868	0.0
67970	0.0
68074	0.0
68178	0.0
68282	0.0
68389	0.0
68491	0.0
68595	0.0
68697	0.0
68800	0.0
68902	0.0
69004	0.0
69106	0.0
69210	0.0
69312	0.0
69417	0.0
69519	0.0
69621	0.0
69726	0.0
69830	0.0
69934	0.0
70039	0.0
70143	0.0
70245	0.0
70351	0.0
70453	0.0
70594	0.0
70710	0.0
70813	0.0
70918	0.0
71020	0.0
71122	0.0
71229	0.0
71333	0.0
71437	0.0
71540	0.0
71642	0.0
71748	0.0
71851	0.0
71955	0.0
72060	0.0
72163	0.0
72267	0.0
72372	0.0
72474	0.0
72576	0.0
72680	0.0
72783	0.0
72887	0.0
72989	0.0
73092	0.0
73193	0.0
73295	0.0
73398	0.0
73500	0.0
73605	0.0
73710	0.0
73813	0.0
73917	0.0
74022	0.0
74126	0.0
74230	0.0
74332	0.0
74436	0.0
74537	0.0
74645	0.0
74748	0.0
74852	0.0
74954	0.0
75058	0.0
75160	0.0
75265	0.0
75368	0.0
75469	0.0
75571	0.0
75676	0.0
75790	0.0
75895	0.0
76002	0.0
76104	0.0
76208	0.0
76310	0.0
76412	0.0
76516	0.0
76617	0.0
76719	0.0
76820	0.0
76922	0.0
77027	0.0
77132	0.0
77240	0.0
77345	0.0
77451	0.0
77554	0.0
77658	0.0
77761	0.0
77866	0.0
77972	0.0
78074	0.0
78177	0.0
78279	0.0
78388	0.0
78489	0.0
78591	0.0
78694	0.0
78797	0.0
78898	0.0
79001	0.0
79106	0.0
79213	0.0
79321	0.0
79424	0.0
79527	0.0
79629	0.0
79730	0.0
79832	0.0
79934	0.0
80036	0.0
80141	0.0
80245	0.0
80348	0.0
80450	1.0
80551	1.0
80653	1.0
80755	1.0
80869	1.0
80971	1.0
81076	1.0
81178	1.0
81281	1.0
81386	1.0
81488	1.0
81590	1.0
81693	1.0
81794	1.0
81912	1.0
82015	1.0
82117	1.0
82220	1.0
82321	1.0
82427	1.0
82529	1.0
82631	1.0
82734	1.0
82835	1.0
82938	1.0
83040	1.0
83150	1.0
83253	1.0
83356	1.0
83457	1.0
83559	1.0
83662	1.0
83766	1.0
83868	1.0
83970	1.0
84075	1.0
84178	1.0
84279	1.0
84385	1.0
84488	1.0
84592	1.0
84698	1.0
84799	1.0
84902	1.0
85009	1.0
85111	1.0
85215	1.0
85317	1.0
85419	1.0
85524	1.0
85627	1.0
85729	1.0
85832	1.0
85947	1.0
86049	1.0
86156	1.0
86260	1.0
86362	1.0
86467	1.0
86569	1.0
86671	1.0
86779	1.0
86885	1.0
86989	1.0
87093	1.0
87195	1.0
87297	1.0
87400	1.0
87502	0.0
87606	0.0
87708	0.0
87809	0.0
87912	0.0
88017	0.0
88118	0.0
88220	0.0
88321	0.0
88425	0.9978870995783781
88526	0.9978870995783781
88628	0.9978870995783781
88731	0.9978870995783781
88835	0.9978870995783781
88938	0.9978870995783781
89040	0.9978870995783781
89142	0.9978870995783781
89249	0.9978870995783781
89356	0.0
89459	0.0
89560	0.0
89662	0.0
89764	0.0
89866	0.0
89969	0.0
90071	0.0
90178	0.0
90282	0.0
90389	0.0
90492	0.9993574377646057
90597	0.9993574377646057
90700	0.9993574377646057
90813	0.9993574377646057
90916	0.9993574377646057
91031	0.9993574377646057
91133	0.9993574377646057
91238	0.9993574377646057
91341	0.9993574377646057
91444	0.0
91545	0.0
91647	0.0
91750	0.0
91852	0.0
91959	0.0
92062	0.0
92165	0.0
92272	0.0
92373	0.0
92476	0.0
92580	0.0
92682	0.0
92786	0.0
92887	0.0
92994	0.0
93095	0.0
93199	0.0
93301	0.0
93403	0.0
93505	0.0
93606	0.0
93710	0.0
93818	0.0
93922	0.0
94026	0.0
94128	0.0
94232	0.0
94334	0.0
94436	0.0
94540	0.0
94642	0.0
94745	0.0
94846	0.0
94949	0.0
95051	0.0
95152	0.0
95257	0.0
95365	0.0
95467	0.0
95569	0.0
95671	0.0
95774	0.0
95878	0.0
95983	0.0
96097	0.0
96199	0.0
96308	0.0
96409	0.0
96512	0.0
96614	0.0
96717	0.0
96818	0.0
96920	0.0
97026	0.0
97128	0.0
97230	0.0
97332	0.0
97438	1.0
97540	1.0
97646	1.0
97747	1.0
97850	1.0
97956	1.0
98064	1.0
98166	1.0
98270	1.0
98372	1.0
98477	1.0
98579	1.0
98684	1.0
98788	1.0
98891	1.0
98996	1.0
99097	1.0
99199	1.0
99301	1.0
99409	1.0
99510	1.0
99612	1.0
99714	1.0
99819	1.0
99921	1.0
100027	1.0
100131	1.0
100235	1.0
100340	1.0
100443	1.0
100547	1.0
100649	1.0
100752	1.0
100855	1.0
100959	1.0
101060	1.0
101169	1.0
101271	1.0
101374	0.0883025237800863
101480	0.0883025237800863
101584	0.0883025237800863
101686	0.0883025237800863
101790	0.0883025237800863
101892	0.0883025237800863
101999	0.0883025237800863
102101	0.0883025237800863
102203	0.0883025237800863
102306	0.0883025237800863
102408	0.0
102509	0.0
102611	0.0
102712	0.0
102814	0.0
102916	0.0
103019	0.0
103123	0.0
103230	0.0
103331	0.0
103436	0.0
103539	0.0
103642	0.0
103746	0.0
103851	0.0
103952	0.0
104059	0.0
104165	0.0
104270	0.0
104372	0.0
104474	0.0
104613	0.0
104715	0.0
104818	0.0
104920	0.0
105022	0.0
105128	0.0
105230	0.0
105338	0.0
105442	0.0
105544	0.0
105646	0.0
105751	0.0
105876	0.0
105978	0.0
106080	0.0
106185	0.0
106287	0.0
106389	0.0
106492	0.0
106597	0.0
106699	0.0
106802	0.0
106907	0.0
107012	0.0
107117	0.0
107220	0.0
107325	0.0
107428	0.0
107531	0.0
107633	0.0
107736	0.0
107837	0.0
107940	0.0
108043	0.0
108145	0.0
108249	0.0
108351	0.0
108454	0.0
108556	0.0
108658	0.0
108760	0.0
108866	0.0
108971	0.0
109076	0.0
109180	0.0
109284	0.0
109388	0.0
109490	0.0
109594	0.0
109698	0.0
109800	0.0
109902	0.0
110004	0.0
110106	0.0
110207	0.0
110309	0.0
110411	0.0
110521	0.0
110630	0.0
110732	0.0
110835	0.0
110937	0.0
111039	0.0
111141	0.0
111256	0.0
111358	0.0
111460	0.0
111561	0.0
111665	0.0
111776	0.0
111879	0.0
111981	0.0
112085	0.0
112188	0.0
112292	0.0
112396	0.0
112499	0.0
112601	0.0
112705	0.0
112807	0.0
112912	0.0
113013	0.0
113115	0.0
113217	0.0
113319	0.0
113421	0.0
113524	0.0
113625	0.0
113728	0.0
113832	0.0
113936	0.0
114039	0.0
114142	0.0
114247	0.0
114353	0.0
114456	0.0
114558	0.0
114661	0.0
114765	0.0
114870	0.0
114972	0.0
115076	0.0
115178	0.0
115283	0.0
115385	0.0
115487	0.0
115589	0.0
115703	0.0
115809	0.0
115913	0.0
116017	0.0
116121	0.0
116225	0.0
116330	0.0
116436	1.0
116539	1.0
116642	1.0
116747	1.0
116848	1.0
116951	1.0
117059	1.0
117169	1.0
117275	1.0
117377	1.0
117480	1.0
117582	1.0
117685	1.0
117786	1.0
117890	1.0
117992	1.0
118099	1.0
118201	1.0
118307	1.0
118409	1.0
118511	1.0
118614	1.0
118716	1.0
118817	1.0
118919	1.0
119020	1.0
119123	1.0
119226	1.0
119329	1.0
119431	0.0
119532	0.0
119638	0.0
119740	0.0
119842	0.0
119948	0.0
120050	0.0
120152	0.0
120260	0.0
120365	0.0
120468	1.0
120570	1.0
120681	1.0
120787	1.0
120889	1.0
120992	1.0
121100	1.0
121201	1.0
121307	1.0
121409	0.0
121511	0.0
121616	0.0
121718	0.0
121821	0.0
121942	0.0
122043	0.0
122146	0.0
122249	0.0
122355	1.0
122456	1.0
122559	1.0
122662	1.0
122766	1.0
122867	1.0
122970	1.0
123073	1.0
123181	1.0
123285	1.0
123394	1.0
123497	1.0
123600	1.0
123703	1.0
123807	1.0
123909	1.0
124012	1.0
124114	1.0
124216	1.0
124320	1.0
124421	0.9616742821203205
124524	0.9616742821203205
124627	0.9616742821203205
124729	0.9616742821203205
124832	0.9616742821203205
124937	0.9616742821203205
125038	0.9616742821203205
125142	0.9616742821203205
125248	0.9616742821203205
125352	0.44060047001095826
125455	0.44060047001095826
125563	0.44060047001095826
125665	0.44060047001095826
125770	0.44060047001095826
125877	0.44060047001095826
125980	0.44060047001095826
126083	0.44060047001095826
126187	0.44060047001095826
126290	0.44060047001095826
126393	0.0
126494	0.0
126597	0.0
126698	0.0
126801	0.0
126903	0.0
127005	0.0
127107	0.0
127209	0.0
127312	0.0
127419	0.0
127521	0.0
127626	0.0
127728	0.0
127830	0.0
127934	0.0
128037	0.0
128141	0.0
128249	0.0
128352	0.0
128455	0.0
128557	0.0
128659	0.0
128765	0.0
128866	0.0
128969	0.0
129071	0.0
129176	0.0
129278	0.0
129381	0.0
129484	0.0
129586	0.0
129691	0.0
129800	0.0
129905	0.0
130007	0.0
130109	0.0
130214	0.0
130316	0.0
130417	0.0
130519	0.0
130622	0.0
130728	0.0
130830	0.0
130941	0.0
131052	0.0
131155	0.0
131260	0.0
131362	0.0
131467	0.0
131569	0.0
131672	0.0
131778	0.0
131882	0.0
131986	0.0
132090	0.0
132195	0.0
132298	0.0
132405	0.0
132507	0.0
132609	0.0
132710	0.0
132812	0.0
132914	0.0
133015	0.0
133117	0.0
133221	0.0
133325	0.0
133428	0.0
133530	0.0
133633	0.0
133739	0.0
133850	0.0
133951	0.0
134057	0.0
134160	0.0
134262	0.0
134369	0.0
134472	1.0
134579	1.0
134681	1.0
134782	1.0
134888	1.0
134992	1.0
135096	1.0
135199	1.0
135303	1.0
135406	1.0
135508	1.0
135619	1.0
135721	1.0
135824	1.0
135925	1.0
136031	1.0
136135	1.0
136243	1.0
136349	1.0
136452	1.0
136555	1.0
136659	1.0
136761	1.0
136862	1.0
136968	1.0
137069	1.0
137173	1.0
137275	1.0
137377	1.0
137480	1.0
137582	1.0
137685	1.0
137786	1.0
137888	1.0
137989	1.0
138092	1.0
138197	1.0
138299	1.0
138400	1.0
138508	0.0
138610	0.0
138716	0.0
138817	0.0
138920	0.0
139022	0.0
139131	0.0
139238	0.0
139343	0.0
139445	0.0
139547	0.0
139651	0.0
139757	0.0
139859	0.0
139962	0.0
140067	0.0
140169	0.0
140271	0.0
140378	0.0
140493	0.0
140596	0.0
140700	0.0
140802	0.0
140906	0.0
141008	0.0
141118	0.0
141221	0.0
141330	0.0
141433	0.0
141537	0.0
141639	0.0
141742	0.0
141845	0.0
141948	0.0
142050	0.0
142152	0.0
142258	0.0
142360	0.0
142467	0.0
142568	0.0
142670	0.0
142776	0.0
142881	0.0
142986	0.0
143090	0.0
143201	0.0
143304	0.0
143406	0.0
143510	0.0
143612	0.0
143714	0.0
143816	0.0
143918	0.0
144019	0.0
144121	0.0
144222	0.0
144332	0.0
144434	0.0
144535	0.0
144654	0.0
144755	0.0
144857	0.0
144960	0.0
145062	0.0
145169	0.0
145272	0.0
145381	0.0
145484	0.0
145589	0.0
145690	0.0
145793	0.0
145895	0.0
145996	0.0
146098	0.0
146215	0.0
146318	0.0
146425	0.0
146526	0.0
146631	0.0
146736	0.0
146840	0.0
146942	0.0
147046	0.0
147151	0.0
147252	0.0
147356	0.0
147458	0.0
147562	0.0
147664	0.0
147767	0.0
147869	0.0
147972	0.0
148078	0.0
148180	0.0
148286	0.0
148396	0.0
148500	0.0
148606	0.0
148709	0.0
148814	0.0
148918	0.0
149022	0.0
149126	0.0
149229	0.0
149332	0.0
149435	0.0
149536	0.0
149639	0.0
149740	0.0
149842	0.0
149948	0.0
150050	0.0
150156	0.0
150260	0.0
150365	0.0
150472	0.0
150578	0.0
150680	0.0
150787	0.0
150889	0.0
150994	0.0
151098	0.0
151201	0.0
151332	0.0
151438	0.999782900333235
151539	0.999782900333235
151642	0.999782900333235
151744	0.999782900333235
151848	0.999782900333235
151952	0.999782900333235
152054	0.999782900333235
152157	0.999782900333235
152259	0.999782900333235
152362	1.0
152463	1.0
152565	1.0
152670	1.0
152773	1.0
152879	1.0
152984	1.0
153089	1.0
153192	1.0
153294	1.0
153401	1.0
153504	1.0
153606	1.0
153709	1.0
153812	1.0
153918	1.0
154020	1.0
154122	1.0
154229	1.0
154338	1.0
154440	1.0
154543	1.0
154645	1.0
154750	1.0
154853	1.0
154959	1.0
155067	1.0
155169	1.0
155277	1.0
155379	1.0
155482	1.0
155588	1.0
155694	1.0
155809	1.0
155913	1.0
156015	1.0
156120	1.0
156224	1.0
156327	1.0
156431	1.0
156537	1.0
156641	1.0
156744	1.0
156848	1.0
156951	1.0
157056	1.0
157159	1.0
157264	1.0
157366	1.0
157469	1.0
157574	1.0
157677	1.0
157781	1.0
157884	1.0
157987	1.0
158089	1.0
158191	1.0
158294	1.0
158398	0.986416995602283
158501	0.986416995602283
158605	0.986416995602283
158710	0.986416995602283
158815	0.986416995602283
158918	0.986416995602283
159021	0.986416995602283
159127	0.986416995602283
159231	0.986416995602283
159339	0.986416995602283
159440	0.0
159542	0.0
159647	0.0
159748	0.0
159852	0.0
159958	0.0
160062	0.0
160168	0.0
160272	0.0
160379	0.0
160481	0.9999109098372951
160591	0.9999109098372951
160697	0.9999109098372951
160803	0.9999109098372951
160905	0.9999109098372951
161006	0.9999109098372951
161109	0.9999109098372951
161210	0.9999109098372951
161325	0.9999109098372951
161427	0.0
161528	0.0
161630	0.0
161735	0.0
161837	0.0
161940	0.0
162042	0.0
162148	0.0
162251	0.0
162359	0.0
162461	0.0
162562	0.0
162669	0.0
162770	0.0
162878	0.0
162984	0.0
163103	0.0
163204	0.0
163308	0.0
163410	0.0
163512	0.0
163615	0.0
163717	0.0
163818	0.0
163920	0.0
164023	0.0
164127	0.0
164230	0.0
164332	0.0
164435	0.0
164542	0.0
164645	0.0
164749	0.0
164852	0.0
164961	0.0
165064	0.0
165166	0.0
165268	0.0
165370	0.0
165473	0.0
165575	0.0
165678	0.0
165780	0.0
165882	0.0
165987	0.0
166089	0.0
166194	0.0
166296	0.0
166404	0.0
166506	0.0
166610	0.0
166713	0.0
166817	0.0
166919	0.0
167022	0.0
167124	0.0
167226	0.0
167328	0.0
167431	0.0
167534	0.0
167636	0.0
167741	0.0
167843	0.0
167947	0.0
168051	0.0
168155	0.0
168257	0.0
168365	0.0
168467	0.0
168574	0.0
168677	0.0
168780	0.0
168882	0.0
168987	0.0
169089	0.0
169192	0.0
169295	0.0
169397	0.0
169499	0.0
169602	0.0
169707	0.0
169811	0.0
169917	0.0
170019	0.0
171753	1.0
171856	1.0
171960	1.0
172076	1.0
172179	1.0
172281	1.0
172394	1.0
172497	1.0
172608	1.0
172711	1.0
172817	1.0
172920	1.0
173026	1.0
173128	1.0
173231	1.0
173337	1.0
173440	0.0
173541	0.0
173652	0.0
173754	0.0
173857	0.0
173961	0.0
174063	0.0
174167	0.0
174269	0.0
174372	0.0
174478	1.0
174580	1.0
174684	1.0
174787	1.0
174891	1.0
174995	1.0
175100	1.0
175202	1.0
175307	1.0
175409	0.0
175511	0.0
175615	0.0
175717	0.0
175820	0.0
175922	0.0
176028	0.0
176130	0.0
176231	0.0
176340	0.0
176442	0.0
176549	0.0
176653	0.0
176756	0.0
176860	0.0
176963	0.0
177067	0.0
177169	0.0
177272	0.0
177375	0.0
177479	0.0
177582	0.0
177696	0.0
177798	0.0
177900	0.0
178003	0.0
178106	0.0
178215	0.0
178318	0.0
178421	0.0
178526	0.0
178627	0.0
178730	0.0
178832	0.0
178938	0.0
179041	0.0
179145	0.0
179247	0.0
179349	0.0
179452	0.0
179557	0.0
179661	0.0
179765	0.0
179869	0.0
179975	0.0
180079	0.0
180182	0.0
180286	0.0
180394	0.0
180496	0.0
180599	0.0
180705	0.0
180807	0.0
180911	0.0
181014	0.0
181117	0.0
181218	0.0
181321	0.0
181427	0.0
181529	0.0
181630	0.0
181732	0.0
181839	0.0
181942	0.0
182048	0.0
182150	0.0
182252	0.0
182360	0.0
182464	0.0
182566	0.0
182668	0.0
182781	0.0
182884	0.0
182988	0.0
183092	0.0
183199	0.0
183301	0.0
183405	0.0
183508	0.0
183610	0.0
183713	0.0
183815	0.0
183921	0.0
184027	0.0
184129	0.0
184231	0.0
184332	0.0
184434	0.0
184537	0.0
184640	0.0
184742	0.0
184848	0.0
184951	0.0
185052	0.0
185154	0.0
185257	0.0
185359	0.0
185462	0.0
185567	0.0
185671	0.0
185775	0.0
185877	0.0
185981	0.0
186085	0.0
186187	0.0
186290	0.0
186391	0.0
186499	0.0
186601	0.0
186704	0.0
186810	0.0
186914	0.0
187017	0.0
187119	0.0
187222	0.0
187333	0.0
187450	0.0
187551	0.0
187655	0.0
187759	0.0
187869	0.0
187971	0.0
188073	0.0
188176	0.0
188281	0.0
188385	0.9113147268883086
188487	0.9113147268883086
188590	0.9113147268883086
188692	0.9113147268883086
188797	0.9113147268883086
188899	0.9113147268883086
189005	0.9113147268883086
189108	0.9113147268883086
189210	0.9113147268883086
189312	0.9113147268883086
189416	1.0
189518	1.0
189619	1.0
189724	1.0
189826	1.0
189927	1.0
190031	1.0
190135	1.0
190238	1.0
190340	1.0
190444	1.0
190549	1.0
190651	1.0
190755	1.0
190859	1.0
190962	1.0
191069	1.0
191174	1.0
191278	1.0
191381	1.0
191484	1.0
191586	1.0
191688	1.0
191790	1.0
191897	1.0
191999	1.0
192102	1.0
192211	1.0
192316	1.0
192426	1.0
192533	1.0
192636	1.0
192738	1.0
192841	1.0
192954	1.0
193057	1.0
193163	1.0
193268	1.0
193379	1.0
193481	1.0
193583	1.0
193688	1.0
193794	1.0
193898	1.0
194001	1.0
194109	1.0
194210	1.0
194312	1.0
194415	0.0
194517	0.0
194619	0.0
194721	0.0
194823	0.0
194926	0.0
195030	0.0
195132	0.0
195243	0.0
195346	0.0
195450	1.0
195552	1.0
195656	1.0
195761	1.0
195865	1.0
195967	1.0
196069	1.0
196172	1.0
196274	1.0
196376	0.0
196481	0.0
196586	0.0
196692	0.0
196804	0.0
196906	0.0
197011	0.0
197114	0.0
197219	0.0
197321	0.0
197423	0.0
197524	0.0
197627	0.0
197732	0.0
197838	0.0
197939	0.0
198042	0.0
198148	0.0
198251	0.0
198358	0.0
198460	0.0
198564	0.0
198674	0.0
198777	0.0
198879	0.0
198982	0.0
199084	0.0
199188	0.0
199291	0.0
199396	0.0
199497	0.0
199600	0.0
199701	0.0
199805	0.0
199908	0.0
200009	0.0
200111	0.0
200213	0.0
200315	0.0
200417	0.0
200518	0.0
200621	0.0
200722	0.0
200828	0.0
200929	0.0
201031	0.0
201137	0.0
201242	0.0
201348	0.0
201450	0.0
201553	0.0
201656	0.0
201758	0.0
201860	0.0
201962	0.0
202069	0.0
202171	0.0
202277	0.0
202379	0.0
202481	0.0
202587	0.0
202689	0.0
202791	0.0
202901	0.0
203005	0.0
203107	0.0
203209	0.0
203311	0.0
203412	0.0
203519	0.0
203623	0.0
203734	0.0
203836	0.0
203938	0.0
204040	0.0
204146	0.0
204248	0.0
204351	0.0
204456	0.0
204558	0.0
204660	0.0
204762	0.0
204869	0.0
204972	0.0
205078	0.0
205180	0.0
205285	0.0
205388	0.0
205490	0.0
205595	0.0
205699	0.0
205801	0.0
205903	0.0
206005	0.0
206109	0.0
206211	0.0
206316	0.0
206418	0.0
206520	0.0
206623	0.0
206729	0.0
206831	0.0
206936	0.0
207037	0.0
207141	0.0
207245	0.0
207348	0.0
207450	1.0
207552	1.0
207658	1.0
207760	1.0
207864	1.0
207966	1.0
208071	1.0
208176	1.0
208465	1.0
208634	1.0
208805	1.0
208986	1.0
209171	1.0
209276	1.0
209381	1.0
209484	1.0
209591	1.0
209694	1.0
209796	1.0
209901	1.0
210004	1.0
210106	1.0
210207	1.0
210311	1.0
210413	1.0
210517	1.0
210619	1.0
210721	1.0
210822	1.0
210927	1.0
211029	1.0
211131	1.0
211236	1.0
211339	1.0
211446	0.0
211559	0.0
211661	0.0
211767	0.0
211868	0.0
211973	0.0
212076	0.0
212177	0.0
212282	0.0
212386	0.0
212488	1.0
212590	1.0
212695	1.0
212797	1.0
212900	1.0
213002	1.0
213105	1.0
213209	1.0
213315	1.0
213428	0.0
213530	0.0
213634	0.0
213741	0.0
213843	0.0
213947	0.0
214060	0.0
214162	0.0
214266	0.0
214369	0.0
214475	0.0
214577	0.0
214680	0.0
214784	0.0
214889	0.0
214995	0.0
215100	0.0
215211	0.0
215314	0.0
215416	0.0
215518	0.0
215620	0.0
215723	0.0
215825	0.0
215929	0.0
216031	0.0
216137	0.0
216239	0.0
216342	0.0
216445	0.0
216551	0.0
216655	0.0
216757	0.0
216859	0.0
216961	0.0
217064	0.0
217166	0.0
217270	0.0
217375	0.0
217477	0.0
217579	0.0
217681	0.0
217785	0.0
217887	0.0
217990	0.0
218092	0.0
218198	0.0
218300	0.0
218402	0.0
218507	0.0
218609	0.0
218712	0.0
218826	0.0
218928	0.0
219031	0.0
219134	0.0
219237	0.0
219345	0.0
219447	0.0
219551	0.0
219656	0.0
219758	0.0
219861	0.0
219963	0.0
220064	0.0
220166	0.0
220268	0.0
220371	0.0
220472	0.0
220575	0.0
220677	0.0
220783	0.0
220889	0.0
220991	0.0
221096	0.0
221199	0.0
221304	0.0
221406	0.0
221508	0.0
221611	0.0
221713	0.0
221816	0.0
221918	0.0
222021	0.0
222127	0.0
222229	0.0
222331	0.0
222434	0.0
222536	0.0
222638	0.0
222740	0.0
222842	0.0
222944	0.0
223047	0.0
223149	0.0
223251	0.0
223356	0.0
223460	0.0
223562	0.0
223665	0.0
223769	0.0
223872	0.0
224012	0.0
224118	0.0
224231	0.0
224332	0.0
224449	0.0
224551	0.0
224652	0.0
224760	0.0
224865	0.0
224969	0.0
225073	0.0
225179	0.0
225281	0.0
225383	0.0
225486	0.0
225588	0.0
225691	0.0
225792	0.0
225895	0.0
225997	0.0
226098	0.0
226200	0.0
226305	0.0
226408	0.0
226510	0.0
226612	0.0
226717	0.0
226820	0.0
226922	0.0
227029	0.0
227131	0.0
227235	0.0
227338	0.0
227440	1.0
227541	1.0
227647	1.0
227748	1.0
227851	1.0
227955	1.0
228062	1.0
228166	1.0
228270	1.0
228372	1.0
228475	1.0
228576	1.0
228678	1.0
228782	1.0
228885	1.0
228987	1.0
229092	1.0
229196	1.0
229316	1.0
229417	1.0
229520	1.0
229623	1.0
229725	1.0
229828	1.0
229931	1.0
230033	1.0
230136	1.0
230238	1.0
230340	1.0
230458	1.0
230562	1.0
230665	1.0
230769	1.0
230873	1.0
230978	1.0
231079	1.0
231186	1.0
231291	1.0
231393	1.0
231497	1.0
231599	1.0
231703	1.0
231809	1.0
231910	1.0
232014	1.0
232115	1.0
232217	1.0
232318	1.0
232422	1.0
232526	1.0
232632	1.0
232735	1.0
232839	1.0
232944	1.0
233048	1.0
233151	1.0
233253	1.0
233356	1.0
233458	1.0
233561	1.0
233663	1.0
233768	1.0
233870	1.0
233975	1.0
234077	1.0
234179	1.0
234280	1.0
234397	1.0
234499	0.0
234601	0.0
234702	0.0
234805	0.0
234911	0.0
235014	0.0
235115	0.0
235218	0.0
235319	0.0
235422	0.0
235526	0.0
235671	0.0
235774	0.0
235875	0.0
235979	0.0
236082	0.0
236188	0.0
236290	0.0
236405	0.0
236507	0.0
236610	0.0
236713	0.0
236819	0.0
236922	0.0
237029	0.0
237130	0.0
237237	0.0
237338	0.0
237441	0.0
237542	0.0
237645	0.0
237747	0.0
237852	0.0
237959	0.0
238063	0.0
238168	0.0
238274	0.0
238378	0.0
238480	0.0
238581	0.0
238685	0.0
238788	0.0
238890	0.0
238992	0.0
239093	0.0
239196	0.0
239300	0.0
239402	0.0
239505	0.0
239615	0.0
239717	0.0
239820	0.0
239923	0.0
240029	0.0
240135	0.0
240239	0.0
240343	0.0
240445	0.0
240547	0.0
240651	0.0
240754	0.0
240858	0.0
240961	0.0
241065	0.0
241167	0.0
241269	0.0
241371	0.0
241476	0.0
241581	0.0
241684	0.0
241792	0.0
241897	0.0
241999	0.0
242103	0.0
242206	0.0
242309	0.0
242411	0.0
242516	0.0
242620	0.0
242722	0.0
242828	0.0
242932	0.0
243038	0.0
243139	0.0
243245	0.0
243347	0.0
243450	0.0
243551	0.0
243660	0.0
243763	0.0
243868	0.0
243970	0.0
244076	0.0
244178	0.0
244283	0.0
244386	0.0
244490	0.0
244591	0.0
244704	0.0
244812	0.0
244933	0.0
245038	0.0
245140	0.0
245245	0.0
245349	0.0
245451	1.0
245643	1.0
245794	1.0
245956	1.0
246116	1.0
246306	1.0
246503	1.0
246674	1.0
246781	1.0
246886	1.0
246990	1.0
247094	1.0
247200	1.0
247302	1.0
247461	1.0
247646	1.0
247807	1.0
247986	1.0
248150	1.0
248343	1.0
248502	1.0
248604	1.0
248707	1.0
248813	1.0
248915	1.0
249017	1.0
249121	1.0
249227	1.0
249330	1.0
249433	0.0
249534	0.0
249636	0.0
249750	0.0
249853	0.0
249955	0.0
250062	0.0
250164	0.0
250267	0.0
250370	0.0
250472	0.0
250575	0.0
250676	0.0
250778	0.0
250881	0.0
250982	0.0
251092	0.0
251197	0.0
251305	0.0
251407	0.0
251508	0.0
251611	0.0
251715	0.0
251818	0.0
251926	0.0
252028	0.0
252132	0.0
252238	0.0
252340	0.0
252448	0.0
252551	0.0
252656	0.0
252760	0.0
252878	0.0
252980	0.0
253084	0.0
253185	0.0
253287	0.0
253389	0.0
253493	0.0
253595	0.0
253701	0.0
253805	0.0
253909	0.0
254010	0.0
254119	0.0
254221	0.0
254324	0.0
254426	0.0
254529	0.0
254630	0.0
254745	0.0
254851	0.0
254986	0.0
255089	0.0
255195	0.0
255297	0.0
255399	0.0
255500	0.0
255602	0.0
255704	0.0
255816	0.0
255918	0.0
256021	0.0
256129	0.0
256231	0.0
256335	0.0
256437	0.0
256539	0.0
256641	0.0
256748	0.0
256849	0.0
256951	0.0
257054	0.0
257157	0.0
257259	0.0
257360	0.0
257464	0.0
257567	0.0
257670	0.0
257771	0.0
257875	0.0
257978	0.0
258140	0.0
258242	0.0
258353	0.0
258457	0.0
258560	0.0
258664	0.0
258768	0.0
258873	0.0
258978	0.0
259080	0.0
259184	0.0
259286	0.0
259390	0.0
259492	0.0
259596	0.0
259702	0.0
259805	0.0
259908	0.0
260011	0.0
260118	0.0
260221	0.0
260322	0.0
260426	0.0
260528	0.0
260632	0.0
260735	0.0
260838	0.0
260939	0.0
261041	0.0
261147	0.0
261250	0.0
261356	0.0
261457	0.0
261563	0.0
261667	0.0
261769	0.0
261886	0.0
261988	0.0
262095	0.0
262196	0.0
262298	0.0
262402	0.0
262504	0.0
262608	0.0
262710	0.0
262815	0.0
262917	0.0
263022	0.0
263125	0.0
263228	0.0
263329	0.0
263432	0.0
263534	0.0
263637	0.0
263739	0.0
263842	0.0
263945	0.0
264046	0.0
264148	0.0
264250	0.0
264352	0.0
264456	0.0
264558	0.0
264661	0.0
264768	0.0
264891	0.0
264995	0.0
265099	0.0
265201	0.0
265306	0.0
265408	0.0
265510	0.0
265612	0.0
265719	0.0
265821	0.0
265928	0.0
266042	0.0
266148	0.0
266250	0.0
266353	0.0
266455	1.0
266569	1.0
266671	1.0
266773	1.0
266875	1.0
266981	1.0
267085	1.0
267189	1.0
267294	1.0
267396	1.0
267499	1.0
267603	1.0
267705	1.0
267806	1.0
267910	1.0
268012	1.0
268114	1.0
268215	1.0
268317	1.0
268420	1.0
268521	1.0
268626	1.0
268729	1.0
268831	1.0
268936	1.0
269042	1.0
269145	1.0
269247	1.0
269348	1.0
269450	1.0
269584	1.0
269690	1.0
269792	1.0
269894	1.0
269996	1.0
270098	1.0
270199	1.0
270301	1.0
270410	1.0
270513	1.0
270615	1.0
270716	1.0
270818	1.0
270921	1.0
271026	1.0
271127	1.0
271230	1.0
271331	1.0
271436	0.0
271538	0.0
271652	0.0
271755	0.0
271862	0.0
271969	0.0
272072	0.0
272173	0.0
272276	0.0
272384	0.0
272490	1.0
272594	1.0
272701	1.0
272807	1.0
272909	1.0
273014	1.0
273116	1.0
273220	1.0
273322	1.0
273426	0.0
273528	0.0
273631	0.0
273733	0.0
273835	0.0
273937	0.0
274039	0.0
274140	0.0
274247	0.0
274348	0.0
274452	0.0
274555	0.0
274658	0.0
274764	0.0
274866	0.0
274967	0.0
275069	0.0
275170	0.0
275272	0.0
275379	0.5928520512404818
275481	0.5928520512404818
275583	0.5928520512404818
275687	0.5928520512404818
275789	0.5928520512404818
275895	0.5928520512404818
275999	0.5928520512404818
276103	0.5928520512404818
276206	0.5928520512404818
276307	0.5928520512404818
276409	0.0
276511	0.0
276614	0.0
276728	0.0
276830	0.0
276936	0.0
277039	0.0
279440	0.0
279544	0.0
279649	0.0
279751	0.0
279855	0.0
279958	0.0
280061	0.0
280163	0.0
280265	0.0
280367	0.0
280469	0.0
280571	0.0
280675	0.0
280780	0.0
280888	0.0
280991	0.0
281097	0.0
281200	0.0
281312	0.0
281415	0.0
281516	0.0
281621	0.0
281732	0.0
281837	0.0
281942	0.0
282048	0.0
282151	0.0
282254	0.0
282356	0.0
282458	0.9990705856538719
282560	0.9990705856538719
282661	0.9990705856538719
282764	0.9990705856538719
282865	0.9990705856538719
282967	0.9990705856538719
283068	0.9990705856538719
283170	0.9990705856538719
283271	0.9990705856538719
283372	1.0
283516	1.0
283667	1.0
283860	1.0
284013	1.0
284171	1.0
284350	1.0
284506	1.0
284611	1.0
284775	1.0
284883	1.0
284987	1.0
285095	1.0
285298	1.0
285447	1.0
285585	1.0
285736	1.0
285884	1.0
286039	1.0
286207	1.0
286396	1.0
286502	1.0
286674	1.0
286844	1.0
286946	1.0
287048	1.0
287152	1.0
287257	1.0
287360	1.0
287462	0.0
287564	0.0
287665	0.0
287767	0.0
287870	0.0
287975	0.0
288077	0.0
288179	0.0
288281	0.0
288385	0.0
288487	0.0
288590	0.0
288701	0.0
288811	0.0
288914	0.0
289017	0.0
289120	0.0
289222	0.0
289327	0.0
289430	0.0
289532	0.0
289642	0.0
289743	0.0
289847	0.0
289954	0.0
290058	0.0
290160	0.0
290264	0.0
290369	0.0
290473	0.0
290574	0.0
290676	0.0
290779	0.0
290885	0.0
290987	0.0
291089	0.0
291191	0.0
291295	0.0
291404	0.0
291506	0.0
291607	0.0
291709	0.0
291810	0.0
291969	0.0
292072	0.0
292174	0.0
292278	0.0
292383	0.0
292485	0.0
292590	0.0
292692	0.0
292794	0.0
292896	0.0
293004	0.0
293107	0.0
293211	0.0
293314	0.0
293416	0.0
293518	0.0
293620	0.0
293724	0.0
293830	0.0
293934	0.0
294039	0.0
294144	0.0
294248	0.0
294352	0.0
294459	0.0
294562	0.0
294665	0.0
294769	0.0
294875	0.0
294978	0.0
295080	0.0
295183	0.0
295287	0.0
295389	0.0
295491	0.0
295595	0.0
295702	0.0
295809	0.0
295912	0.0
296015	0.0
296121	0.0
296224	0.0
296327	0.0
296429	0.0
296531	0.0
296637	0.0
296738	0.0
296841	0.0
296943	0.0
297046	0.0
297150	0.0
297252	0.0
297362	0.0
297468	0.0
297571	0.0
297675	0.0
297783	0.0
297893	0.0
298009	0.0
298113	0.0
298216	0.0
298318	0.0
298420	0.0
298525	0.0
298627	0.0
298729	0.0
298830	0.0
298932	0.0
299037	0.0
299140	0.0
299243	0.0
299349	0.0
299451	0.0
299559	0.0
299660	0.0
299763	0.0
299869	0.0
299979	0.0
300083	0.0
300188	0.0
300290	0.0
300395	0.6636011145277636
300498	0.6636011145277636
300600	0.6636011145277636
300703	0.6636011145277636
300808	0.6636011145277636
300910	0.6636011145277636
301016	0.6636011145277636
301118	0.6636011145277636
301220	0.6636011145277636
301325	0.6636011145277636
301427	0.6636011145277636
301530	1.0
301632	1.0
301740	1.0
301842	1.0
301944	1.0
302049	1.0
302153	1.0
302258	1.0
302361	1.0
302463	1.0
302565	1.0
302666	1.0
302769	1.0
302871	1.0
302975	1.0
303078	1.0
303181	1.0
303288	1.0
303392	1.0
303493	1.0
303598	1.0
303701	1.0
303804	1.0
303908	1.0
304010	1.0
304114	1.0
304216	1.0
304320	1.0
304426	1.0
304528	1.0
304635	1.0
304738	1.0
304843	1.0
304947	1.0
305050	1.0
305156	1.0
305258	1.0
305360	1.0
305464	1.0
305566	1.0
305677	1.0
305781	1.0
305884	1.0
305986	1.0
306090	1.0
306192	1.0
306296	1.0
306401	1.0
306503	1.0
306606	1.0
306709	1.0
306812	1.0
306917	1.0
307019	1.0
307121	1.0
307227	1.0
307329	1.0
307432	1.0
307539	0.9714091220592846
307641	0.9714091220592846
307746	0.9714091220592846
307848	0.9714091220592846
307957	0.9714091220592846
308060	0.9714091220592846
308161	0.9714091220592846
308266	0.9714091220592846
308369	0.9714091220592846
308473	0.9024400198540403
308576	0.9024400198540403
308679	0.9024400198540403
308781	0.9024400198540403
308893	0.9024400198540403
309006	0.9024400198540403
309108	0.9024400198540403
309209	0.9024400198540403
309312	0.9024400198540403
309419	0.0
309521	0.0
309622	0.0
309727	0.0
309830	0.0
309934	0.0
310041	0.0
310143	0.0
310248	0.0
310353	0.0
310456	0.0
310558	1.0
310660	1.0
310770	1.0
310874	1.0
310981	1.0
311085	1.0
311189	1.0
311291	1.0
311404	1.0
311507	0.9907092895956305
311610	0.9907092895956305
311712	0.9907092895956305
311816	0.9907092895956305
311920	0.9907092895956305
312027	0.9907092895956305
312131	0.9907092895956305
312241	0.9907092895956305
312347	0.9907092895956305
312454	0.0
312557	0.0
312659	0.0
312762	0.0
312863	0.0
312970	0.0
313072	0.0
313178	0.0
313279	0.0
313382	0.0
313487	0.0
313592	0.0
313696	0.0
313798	0.0
313902	0.0
314005	0.0
314108	0.0
314239	0.0
314345	0.0
314448	0.0
314551	0.0
314652	0.0
314755	0.0
314857	0.0
314962	0.0
315065	0.0
315170	0.0
315274	0.0
315377	0.0
315481	0.0
315585	0.0
315688	0.0
315791	0.0
315895	0.0
316001	0.0
316102	0.0
316206	0.0
316308	0.0
316411	0.0
316514	1.0
316617	1.0
316721	1.0
316836	1.0
316938	1.0
317043	1.0
317146	1.0
317250	1.0
317355	1.0
317457	1.0
317685	1.0
317830	1.0
318026	1.0
318186	1.0
318347	1.0
318510	1.0
318667	1.0
318771	1.0
318880	1.0
319056	1.0
319226	1.0
319391	1.0
319575	1.0
319677	1.0
319780	1.0
319883	1.0
319992	1.0
320096	1.0
320206	1.0
320312	1.0
320415	1.0
320517	1.0
320620	1.0
320724	1.0
320826	1.0
320930	1.0
321032	1.0
321138	1.0
321239	1.0
321351	1.0
321471	0.0
321574	0.0
321677	0.0
321780	0.0
321889	0.0
321992	0.0
322101	0.0
322203	0.0
322306	0.0
322409	0.0
322511	0.0
322614	0.0
322718	0.0
322819	0.0
322922	0.0
323026	0.0
323129	0.0
323232	0.0
323335	0.0
323447	0.0
323548	0.0
323650	0.0
323753	0.0
323855	0.0
323958	0.0
324061	0.0
324163	0.0
324265	0.0
324368	0.0
324471	0.0
324574	0.0
324678	0.0
324782	0.0
324884	0.0
324986	0.0
325088	0.0
325191	0.0
325297	0.0
325399	0.0
325502	0.0
325605	0.0
325706	0.0
325808	0.0
325911	0.0
326014	0.0
326119	0.0
326224	0.0
326328	0.0
326433	0.0
326535	0.0
326638	0.0
326742	0.0
326844	0.0
326948	0.0
327050	0.0
327157	0.0
327259	0.0
327376	0.0
327478	0.0
327580	0.0
327686	0.0
327788	0.0
327891	0.0
327994	0.0
328100	0.0
328201	0.0
328304	0.0
328410	0.0
328515	0.0
328617	0.0
328719	0.0
328822	0.0
328928	0.0
329032	0.0
329138	0.0
329243	0.0
329349	0.0
329451	0.0
329552	0.0
329658	0.0
329765	0.0
329867	0.0
329969	0.0
330071	0.0
330172	0.0
330278	0.0
330382	0.0
330488	0.0
330591	0.0
330695	0.0
330802	0.0
330906	0.0
331008	0.0
331110	0.0
331212	0.0
331322	0.0
331424	0.0
331526	0.0
331629	0.0
331730	0.0
331833	0.0
331956	0.0
332058	0.0
332160	0.0
332262	0.0
332369	0.0
332470	0.0
332572	0.0
332678	0.0
332787	0.0
332895	0.0
333001	0.0
333110	0.0
333212	0.0
333317	0.0
333421	0.0
333535	0.0
333644	0.0
333745	0.0
333852	0.0
333954	0.0
334057	0.0
334161	0.0
334262	0.0
334364	0.0
334465	0.0
334567	0.0
334668	0.0
334772	0.0
334874	0.0
334978	0.0
335081	0.0
335183	0.0
335288	0.0
335390	0.0
335491	0.0
335597	0.0
335702	0.0
335805	0.0
335915	0.0
336017	0.0
336121	0.0
336226	0.0
336331	0.0
336435	0.0
336539	0.0
336644	0.0
336748	0.0
336851	0.0
336957	0.0
337058	0.0
337160	0.0
337262	0.0
337364	0.0
337467	0.0
337569	0.0
337674	0.0
337776	0.0
337877	0.0
337979	0.0
338081	0.0
338182	0.0
338287	0.0
338392	0.0
338494	0.0
338598	0.0
338702	0.0
338808	0.0
338912	0.0
339015	0.0
339117	0.0
339220	0.0
339338	0.0
339440	0.0
339542	0.0
339652	0.0
339754	0.0
339857	0.0
339959	0.0
340062	0.0
340169	0.0
340270	0.0
340373	0.0
340475	0.0
340577	0.0
340680	0.0
340782	0.0
340884	0.0
340988	0.0
341090	0.0
341191	0.0
341297	0.0
341400	0.0
341501	0.0
341609	0.0
341712	0.0
341814	0.0
341917	0.0
